﻿Nom             ;Prenom            ;Genre ;Mail                               ;date de naissance
BARAS           ;Hugo              ;H     ;hugo.baras@ecoles-epsi.net         ;03/07/2002
CELLIER         ;Matthieu          ;H     ;matthieu.cellier@ecoles-epsi.net   ;27/06/2001
CHEFIAI         ;Omaima            ;F     ;omaima.chefiai@ecoles-epsi.net     ;11/11/1999
CHMARA          ;Julien            ;H     ;julien.chmara@ecoles-epsi.net      ;07/03/2002
DE CORTE        ;Mattias           ;H     ;mattias.decorte@ecoles-epsi.net    ;25/05/2001
DE SOUSA        ;Enzo              ;H     ;enzo.desousa@ecoles-epsi.net       ;18/07/2003
DELPY           ;Enzo              ;H     ;enzo.delpy@ecoles-epsi.net         ;14/04/2003
DEVILLEPOIX     ;Maxime            ;H     ;maxime.devillepoix@ecoles-epsi.net ;16/10/1998
DIE             ;Martin            ;H     ;martin.die@ecoles-epsi.net         ;02/03/2003
DRONNEAU        ;Mathys            ;H     ;mathys.dronneau@ecoles-epsi.net    ;24/11/2003
FLANDRINCK      ;Alister           ;H     ;alister.flandrinck@ecoles-epsi.net ;21/12/2001
GANSA DIAMBOTE  ;Eric              ;H     ;eric.gansadiambote@ecoles-epsi.net ;01/07/1994
GENSE           ;Quentin           ;H     ;quentin.gense@ecoles-epsi.net      ;08/04/2002
HAMMEMI         ;Nour Allah        ;H     ;nourallah.hammemi@ecoles-epsi.net  ;18/08/1997
HARENG          ;Louis             ;H     ;louis.hareng@ecoles-epsi.net       ;14/04/2003
HENIART         ;Loan              ;H     ;loan.heniart@ecoles-epsi.net       ;01/10/2003
IKLI            ;Anas              ;H     ;anas.ikli@ecoles-epsi.net          ;12/12/2002
KERRAD          ;Yacine            ;H     ;yacine.kerrad@ecoles-epsi.net      ;05/08/2002
KOMBOU TCHOUNGA ;Jeobran Nathanael ;H     ;j.komboutchounga@ecoles-epsi.net   ;17/05/2002
LAUDE           ;Axel              ;H     ;axel.laude@ecoles-epsi.net         ;22/10/2003
LOUSA YONUZ     ;Hasan             ;H     ;hasan.lousayonuz@ecoles-epsi.net   ;25/11/1999
MARRIS-BINET    ;Maxence           ;H     ;m.marrisbinet@ecoles-epsi.net      ;15/05/1998
MIMOUN          ;Younes            ;H     ;younes.mimoun@ecoles-epsi.net      ;10/01/2001
MOISAN          ;Alice             ;F     ;alice.moisan@ecoles-epsi.net       ;04/04/2003
NABE            ;Aboubacar Sidiki  ;H     ;a.nabe1@ecoles-epsi.net            ;25/02/2002
OUARTASSI       ;Younes            ;H     ;younes.ouartassi@ecoles-epsi.net   ;02/01/2004
PAVY            ;Martin            ;H     ;martin.pavy@ecoles-epsi.net        ;24/10/2003
REGNIER         ;Baptiste          ;H     ;baptiste.regnier@ecoles-epsi.net   ;30/06/2003
SAINTENOY       ;Tom               ;H     ;tom.saintenoy@ecoles-epsi.net      ;03/06/2002
SCOTTEZ         ;Valentin          ;H     ;valentin.scottez@ecoles-epsi.net   ;21/09/1997
SEITER          ;Augustin          ;H     ;augustin.seiter@ecoles-epsi.net    ;18/04/2003
SENSAOUI        ;Omar              ;H     ;omar.sensaoui@ecoles-epsi.net      ;29/09/2000
SELLAMI         ;El Mehdi          ;H     ;elmehdi.sellami@ecoles-epsi.net    ;27/05/2001
EYANGO MOUELLE  ;Gilles            ;H     ;g.eyangomouelle@ecoles-epsi.net    ;01/05/2000